using System;
using System.Collections.Generic;
using System.Linq;
using System.Text;

using Xamarin.Forms;

namespace aplicacionPortable
{
    public class App : Application
    {
        public App()
        {
            // The root page of your application
            var content = new ContentPage
            {
                Title = "aplicacionPortable",
                Content = new StackLayout
                {
                    VerticalOptions = LayoutOptions.Center,
                    Children = {
                        new Label {
                            HorizontalTextAlignment = TextAlignment.Center,
                            Text = "Welcome to Xamarin Forms!"
                        }
                    }
                }
            };

            MainPage = new NavigationPage(content);
        }

        protected override void OnStart()
        {
            // Handle when your app starts
        }

        protected override void OnSleep()
        {
            // Handle when your app sleeps
        }

        protected override void OnResume()
        {
            // Handle when your app resumes
        }
    }
}












using System;
using System.Collections.Generic;
using System.Linq;
using System.Text;

using Android.App;
using Android.Content;
using Android.OS;
using Android.Runtime;
using Android.Views;
using Android.Widget;

namespace AgendaSena.Model
{
    class Alumno
    {

}